Previsão de AVC
…
Melhor grid de parâmetros de acordo com a métrica AUC

rf_grid %>%
  collect_metrics() %>%   # Visualiza o tibble de resultados
  arrange(desc(mean))

## # A tibble: 50 × 9
##     mtry trees min_n .metric .estimator  mean     n std_err .config             
##    <int> <int> <int> <chr>   <chr>      <dbl> <int>   <dbl> <chr>               
##  1     3  1061    34 roc_auc binary     0.850     5  0.0110 Preprocessor1_Model…
##  2     1  1313    24 roc_auc binary     0.850     5  0.0124 Preprocessor1_Model…
##  3     3  1018    37 roc_auc binary     0.849     5  0.0116 Preprocessor1_Model…
##  4     2  1592    21 roc_auc binary     0.849     5  0.0110 Preprocessor1_Model…
##  5     2  1486     6 roc_auc binary     0.848     5  0.0109 Preprocessor1_Model…
##  6     8  1414    37 roc_auc binary     0.846     5  0.0109 Preprocessor1_Model…
##  7    10   536    35 roc_auc binary     0.846     5  0.0111 Preprocessor1_Model…
##  8     8  1879    31 roc_auc binary     0.845     5  0.0109 Preprocessor1_Model…
##  9     4  1793    25 roc_auc binary     0.845     5  0.0101 Preprocessor1_Model…
## 10    15   570    39 roc_auc binary     0.845     5  0.0108 Preprocessor1_Model…
## # ℹ 40 more rows
…
Melhor grid de parâmetros de acordo com a métrica AUC

boost_grid %>%
  collect_metrics()  %>%   # visualiza o tibble de resultados
  arrange(desc(mean))

## # A tibble: 50 × 12
##     mtry trees min_n tree_depth learn_rate sample_size .metric .estimator  mean
##    <int> <int> <int>      <int>      <dbl>       <dbl> <chr>   <chr>      <dbl>
##  1     5    67     6          9    0.0192        0.911 roc_auc binary     0.864
##  2    24   570     7          2    0.00670       0.739 roc_auc binary     0.862
##  3     3   513    13         14    0.00708       0.946 roc_auc binary     0.861
##  4    15  1115     2          3    0.00419       0.424 roc_auc binary     0.861
##  5    12  1038    21          4    0.00376       0.948 roc_auc binary     0.860
##  6    19   320    19         11    0.0210        0.720 roc_auc binary     0.859
##  7    25   743     4          2    0.00960       0.332 roc_auc binary     0.859
##  8    10  1529    23          6    0.00131       0.834 roc_auc binary     0.858
##  9    23  1876    10         13    0.00106       0.363 roc_auc binary     0.858
## 10    21  1934    20          9    0.00617       0.649 roc_auc binary     0.855
## # ℹ 40 more rows
## # ℹ 3 more variables: n <int>, std_err <dbl>, .config <chr>
…
